{
	"info": {
		"_postman_id": "0353db71-b2ab-4add-b308-86f28a4df84c",
		"name": "Desafio ioasys",
		"schema": "https://schema.getpostman.com/json/collection/v2.1.0/collection.json"
	},
	"item": [
		{
			"name": "Realizar login do usuário",
			"request": {
				"auth": {
					"type": "basic",
					"basic": [
						{
							"key": "username",
							"value": "felipe",
							"type": "string"
						},
						{
							"key": "password",
							"value": "123",
							"type": "string"
						}
					]
				},
				"method": "POST",
				"header": [],
				"url": {
					"raw": "http://127.0.0.1:5000/login",
					"protocol": "http",
					"host": [
						"127",
						"0",
						"0",
						"1"
					],
					"port": "5000",
					"path": [
						"login"
					]
				}
			},
			"response": [
				{
					"name": "Realizar login do usuário",
					"originalRequest": {
						"method": "POST",
						"header": [],
						"url": {
							"raw": "http://127.0.0.1:5000/login",
							"protocol": "http",
							"host": [
								"127",
								"0",
								"0",
								"1"
							],
							"port": "5000",
							"path": [
								"login"
							]
						}
					},
					"status": "OK",
					"code": 200,
					"_postman_previewlanguage": "json",
					"header": [
						{
							"key": "Content-Type",
							"value": "application/json"
						},
						{
							"key": "Content-Length",
							"value": "216"
						},
						{
							"key": "Server",
							"value": "Werkzeug/1.0.1 Python/3.9.6"
						},
						{
							"key": "Date",
							"value": "Sat, 14 Aug 2021 00:44:43 GMT"
						}
					],
					"cookie": [],
					"body": "{\n    \"exp\": \"Sat, 14 Aug 2021 09:44:43 GMT\",\n    \"message\": \"Logado com sucesso.\",\n    \"token\": \"eyJ0eXAiOiJKV1QiLCJhbGciOiJIUzI1NiJ9.eyJ1c2VybmFtZSI6ImZlbGlwZWEiLCJleHAiOjE2Mjg5MzQyODN9.ujADipSu55LWM-Iet-0TNFUtS17CAkT5VXjHY9mWzXQ\"\n}"
				},
				{
					"name": "Realizar login do usuário",
					"originalRequest": {
						"method": "POST",
						"header": [],
						"url": {
							"raw": "http://127.0.0.1:5000/login",
							"protocol": "http",
							"host": [
								"127",
								"0",
								"0",
								"1"
							],
							"port": "5000",
							"path": [
								"login"
							]
						}
					},
					"status": "UNAUTHORIZED",
					"code": 401,
					"_postman_previewlanguage": "json",
					"header": [
						{
							"key": "Content-Type",
							"value": "application/json"
						},
						{
							"key": "Content-Length",
							"value": "48"
						},
						{
							"key": "Server",
							"value": "Werkzeug/1.0.1 Python/3.9.6"
						},
						{
							"key": "Date",
							"value": "Sat, 14 Aug 2021 00:45:46 GMT"
						}
					],
					"cookie": [],
					"body": "{\n    \"data\": [],\n    \"message\": \"Usuario nao encontrado.\"\n}"
				}
			]
		},
		{
			"name": "Realizar cadastro do usuário",
			"request": {
				"auth": {
					"type": "noauth"
				},
				"method": "POST",
				"header": [],
				"body": {
					"mode": "raw",
					"raw": "{\n\"username\":\"felipe\",\n\"password\":\"123\"\n}",
					"options": {
						"raw": {
							"language": "json"
						}
					}
				},
				"url": {
					"raw": "http://127.0.0.1:5000/user",
					"protocol": "http",
					"host": [
						"127",
						"0",
						"0",
						"1"
					],
					"port": "5000",
					"path": [
						"user"
					]
				}
			},
			"response": [
				{
					"name": "Realizar cadastro do usuário",
					"originalRequest": {
						"method": "POST",
						"header": [],
						"body": {
							"mode": "raw",
							"raw": "{\n\"username\":\"felipe\",\n\"password\":\"123\"\n}",
							"options": {
								"raw": {
									"language": "json"
								}
							}
						},
						"url": {
							"raw": "http://127.0.0.1:5000/user",
							"protocol": "http",
							"host": [
								"127",
								"0",
								"0",
								"1"
							],
							"port": "5000",
							"path": [
								"user"
							]
						}
					},
					"status": "CREATED",
					"code": 201,
					"_postman_previewlanguage": "json",
					"header": [
						{
							"key": "Content-Type",
							"value": "application/json"
						},
						{
							"key": "Content-Length",
							"value": "224"
						},
						{
							"key": "Server",
							"value": "Werkzeug/1.0.1 Python/3.9.6"
						},
						{
							"key": "Date",
							"value": "Sat, 14 Aug 2021 00:41:03 GMT"
						}
					],
					"cookie": [],
					"body": "{\n    \"data\": {\n        \"created_on\": \"2021-08-13T21:40:32\",\n        \"id\": 1,\n        \"password\": \"pbkdf2:sha256:150000$DAlnkaHe$30e6db28e2d809e57e433684f84fb34b5169143144434e23c0f61ab3a7263b28\",\n        \"username\": \"felipe\"\n    },\n    \"message\": \"Usuario cadastrado com sucesso\"\n}"
				}
			]
		},
		{
			"name": "Editar dados do usuário",
			"request": {
				"auth": {
					"type": "bearer",
					"bearer": [
						{
							"key": "token",
							"value": "eyJ0eXAiOiJKV1QiLCJhbGciOiJIUzI1NiJ9.eyJ1c2VybmFtZSI6ImZlbGlwZSIsImV4cCI6MTYyODkzNDExMH0.qNKKGSvjYU1Iz74Rq_oCWbx1mh_YfQEOS_p9Q8kwzF8",
							"type": "string"
						}
					]
				},
				"method": "PUT",
				"header": [],
				"body": {
					"mode": "raw",
					"raw": "{\n\"username\":\"felipea\",\n\"password\":\"1234\"\n}",
					"options": {
						"raw": {
							"language": "json"
						}
					}
				},
				"url": {
					"raw": "http://127.0.0.1:5000/user",
					"protocol": "http",
					"host": [
						"127",
						"0",
						"0",
						"1"
					],
					"port": "5000",
					"path": [
						"user"
					]
				}
			},
			"response": [
				{
					"name": "Editar dados do usuário",
					"originalRequest": {
						"method": "PUT",
						"header": [],
						"body": {
							"mode": "raw",
							"raw": "{\n\"username\":\"felipea\",\n\"password\":\"1234\"\n}",
							"options": {
								"raw": {
									"language": "json"
								}
							}
						},
						"url": {
							"raw": "http://127.0.0.1:5000/user",
							"protocol": "http",
							"host": [
								"127",
								"0",
								"0",
								"1"
							],
							"port": "5000",
							"path": [
								"user"
							]
						}
					},
					"status": "CREATED",
					"code": 201,
					"_postman_previewlanguage": "json",
					"header": [
						{
							"key": "Content-Type",
							"value": "application/json"
						},
						{
							"key": "Content-Length",
							"value": "227"
						},
						{
							"key": "Server",
							"value": "Werkzeug/1.0.1 Python/3.9.6"
						},
						{
							"key": "Date",
							"value": "Sat, 14 Aug 2021 00:43:29 GMT"
						}
					],
					"cookie": [],
					"body": "{\n    \"data\": {\n        \"created_on\": \"2021-08-13T21:40:32\",\n        \"id\": 1,\n        \"password\": \"pbkdf2:sha256:150000$r9rzgoRM$7ad695c86b0bf0de61a35b0b33f433ec2ea2036cd97ece1e407bf59918c9cd2d\",\n        \"username\": \"felipea\"\n    },\n    \"message\": \"Cadastro atualizado com sucesso.\"\n}"
				}
			]
		},
		{
			"name": "Home/verificar usuário logado",
			"request": {
				"auth": {
					"type": "bearer",
					"bearer": [
						{
							"key": "token",
							"value": "eyJ0eXAiOiJKV1QiLCJhbGciOiJIUzI1NiJ9.eyJ1c2VybmFtZSI6ImZlbGlwZWEiLCJleHAiOjE2Mjg5MzQzNzV9.GOYig5A-VwTUbnmV0ImqCUOL6lcu1bXAIb5q-31h6rg",
							"type": "string"
						}
					]
				},
				"method": "GET",
				"header": [],
				"url": {
					"raw": "http://127.0.0.1:5000/home",
					"protocol": "http",
					"host": [
						"127",
						"0",
						"0",
						"1"
					],
					"port": "5000",
					"path": [
						"home"
					]
				}
			},
			"response": [
				{
					"name": "Home/verificar usuário logado",
					"originalRequest": {
						"method": "GET",
						"header": [],
						"url": {
							"raw": "http://127.0.0.1:5000/home",
							"protocol": "http",
							"host": [
								"127",
								"0",
								"0",
								"1"
							],
							"port": "5000",
							"path": [
								"home"
							]
						}
					},
					"status": "OK",
					"code": 200,
					"_postman_previewlanguage": "json",
					"header": [
						{
							"key": "Content-Type",
							"value": "application/json"
						},
						{
							"key": "Content-Length",
							"value": "32"
						},
						{
							"key": "Server",
							"value": "Werkzeug/1.0.1 Python/3.9.6"
						},
						{
							"key": "Date",
							"value": "Sat, 14 Aug 2021 00:47:00 GMT"
						}
					],
					"cookie": [],
					"body": "{\n    \"message\": \"Bem vindo felipea\"\n}"
				}
			]
		},
		{
			"name": "Deletar o usuário logado",
			"request": {
				"auth": {
					"type": "bearer",
					"bearer": [
						{
							"key": "token",
							"value": "eyJ0eXAiOiJKV1QiLCJhbGciOiJIUzI1NiJ9.eyJ1c2VybmFtZSI6ImZlbGlwZWEiLCJleHAiOjE2Mjg5MzQzNzV9.GOYig5A-VwTUbnmV0ImqCUOL6lcu1bXAIb5q-31h6rg",
							"type": "string"
						}
					]
				},
				"method": "DELETE",
				"header": [],
				"url": {
					"raw": "http://127.0.0.1:5000/user",
					"protocol": "http",
					"host": [
						"127",
						"0",
						"0",
						"1"
					],
					"port": "5000",
					"path": [
						"user"
					]
				}
			},
			"response": [
				{
					"name": "Deletar o usuário logado",
					"originalRequest": {
						"method": "DELETE",
						"header": [],
						"url": {
							"raw": "http://127.0.0.1:5000/user",
							"protocol": "http",
							"host": [
								"127",
								"0",
								"0",
								"1"
							],
							"port": "5000",
							"path": [
								"user"
							]
						}
					},
					"status": "OK",
					"code": 200,
					"_postman_previewlanguage": "json",
					"header": [
						{
							"key": "Content-Type",
							"value": "application/json"
						},
						{
							"key": "Content-Length",
							"value": "233"
						},
						{
							"key": "Server",
							"value": "Werkzeug/2.0.1 Python/3.9.6"
						},
						{
							"key": "Date",
							"value": "Sat, 14 Aug 2021 04:00:34 GMT"
						}
					],
					"cookie": [],
					"body": "{\n    \"data\": {\n        \"created_on\": \"2021-08-14T00:03:49\",\n        \"id\": 1,\n        \"password\": \"pbkdf2:sha256:260000$SPbECGZ8xFFDnLWP$60c9422d08c6f219894b4de1aa30ed843df4bbc45853425e2c5dd79176731267\",\n        \"username\": \"felipea\"\n    },\n    \"message\": \"Cadastro deletado com sucesso.\"\n}"
				}
			]
		},
		{
			"name": "Realizar aposta/jogo",
			"request": {
				"auth": {
					"type": "bearer",
					"bearer": [
						{
							"key": "token",
							"value": "eyJ0eXAiOiJKV1QiLCJhbGciOiJIUzI1NiJ9.eyJ1c2VybmFtZSI6ImZlbGlwZSIsImV4cCI6MTYyODkzNDg2OH0.ftt5x_b9ETmnkJfHmN1r0cxL9QoBGgrM5vovI_XItqI",
							"type": "string"
						}
					]
				},
				"method": "POST",
				"header": [],
				"body": {
					"mode": "raw",
					"raw": "{\n\"ndezenas\":6\n}",
					"options": {
						"raw": {
							"language": "json"
						}
					}
				},
				"url": {
					"raw": "http://127.0.0.1:5000/lotrealizarjogo",
					"protocol": "http",
					"host": [
						"127",
						"0",
						"0",
						"1"
					],
					"port": "5000",
					"path": [
						"lotrealizarjogo"
					]
				},
				"description": "Nota: também é permitido adicionar manualmente as dezenas passando o parâmetro \"dezenas\", ver exemplo no dropdown"
			},
			"response": [
				{
					"name": "Realizar aposta/jogo (dezenas predefinidas)",
					"originalRequest": {
						"method": "POST",
						"header": [],
						"body": {
							"mode": "raw",
							"raw": "{\n\"ndezenas\":6,\n\"dezenas\":[1,2,3,4,5,6]\n}",
							"options": {
								"raw": {
									"language": "json"
								}
							}
						},
						"url": {
							"raw": "http://127.0.0.1:5000/lotrealizarjogo",
							"protocol": "http",
							"host": [
								"127",
								"0",
								"0",
								"1"
							],
							"port": "5000",
							"path": [
								"lotrealizarjogo"
							]
						}
					},
					"status": "CREATED",
					"code": 201,
					"_postman_previewlanguage": "json",
					"header": [
						{
							"key": "Content-Type",
							"value": "application/json"
						},
						{
							"key": "Content-Length",
							"value": "165"
						},
						{
							"key": "Server",
							"value": "Werkzeug/1.0.1 Python/3.9.6"
						},
						{
							"key": "Date",
							"value": "Sat, 14 Aug 2021 00:55:37 GMT"
						}
					],
					"cookie": [],
					"body": "{\n    \"data\": {\n        \"concurso\": 2400,\n        \"dezenas\": [\n            1,\n            2,\n            3,\n            4,\n            5,\n            6\n        ],\n        \"id\": 2,\n        \"id_user\": \"1\",\n        \"ndezenas\": 6,\n        \"realizada_em\": \"2021-08-13T21:54:12\"\n    },\n    \"message\": \"Aposta cadastrada com sucesso!\"\n}"
				},
				{
					"name": "Realizar aposta/jogo (dezenas aleatorias)",
					"originalRequest": {
						"method": "POST",
						"header": [],
						"body": {
							"mode": "raw",
							"raw": "{\n\"ndezenas\":6\n\n}",
							"options": {
								"raw": {
									"language": "json"
								}
							}
						},
						"url": {
							"raw": "http://127.0.0.1:5000/lotrealizarjogo",
							"protocol": "http",
							"host": [
								"127",
								"0",
								"0",
								"1"
							],
							"port": "5000",
							"path": [
								"lotrealizarjogo"
							]
						}
					},
					"status": "CREATED",
					"code": 201,
					"_postman_previewlanguage": "json",
					"header": [
						{
							"key": "Content-Type",
							"value": "application/json"
						},
						{
							"key": "Content-Length",
							"value": "170"
						},
						{
							"key": "Server",
							"value": "Werkzeug/1.0.1 Python/3.9.6"
						},
						{
							"key": "Date",
							"value": "Sat, 14 Aug 2021 00:55:01 GMT"
						}
					],
					"cookie": [],
					"body": "{\n    \"data\": {\n        \"concurso\": 2400,\n        \"dezenas\": [\n            8,\n            14,\n            22,\n            28,\n            31,\n            50\n        ],\n        \"id\": 1,\n        \"id_user\": \"1\",\n        \"ndezenas\": 6,\n        \"realizada_em\": \"2021-08-13T21:54:12\"\n    },\n    \"message\": \"Aposta cadastrada com sucesso!\"\n}"
				}
			]
		},
		{
			"name": "Consultar o resultado da mega sena",
			"request": {
				"auth": {
					"type": "bearer",
					"bearer": [
						{
							"key": "token",
							"value": "eyJ0eXAiOiJKV1QiLCJhbGciOiJIUzI1NiJ9.eyJ1c2VybmFtZSI6ImZlbGlwZSIsImV4cCI6MTYyODkzNDg2OH0.ftt5x_b9ETmnkJfHmN1r0cxL9QoBGgrM5vovI_XItqI",
							"type": "string"
						}
					]
				},
				"method": "GET",
				"header": [],
				"url": {
					"raw": "http://127.0.0.1:5000/consultarresultado",
					"protocol": "http",
					"host": [
						"127",
						"0",
						"0",
						"1"
					],
					"port": "5000",
					"path": [
						"consultarresultado"
					]
				}
			},
			"response": [
				{
					"name": "Consultar o resultado da mega sena",
					"originalRequest": {
						"method": "GET",
						"header": [],
						"url": {
							"raw": "http://127.0.0.1:5000/consultarresultado",
							"protocol": "http",
							"host": [
								"127",
								"0",
								"0",
								"1"
							],
							"port": "5000",
							"path": [
								"consultarresultado"
							]
						}
					},
					"status": "OK",
					"code": 200,
					"_postman_previewlanguage": "json",
					"header": [
						{
							"key": "Content-Type",
							"value": "application/json"
						},
						{
							"key": "Content-Length",
							"value": "94"
						},
						{
							"key": "Server",
							"value": "Werkzeug/1.0.1 Python/3.9.6"
						},
						{
							"key": "Date",
							"value": "Sat, 14 Aug 2021 00:56:43 GMT"
						}
					],
					"cookie": [],
					"body": "{\n    \"Acumulado\": \"26.000.000,00\",\n    \"Concurso\": 2399,\n    \"Data\": \"12/08/21\",\n    \"Dezenas\": [\n        27,\n        35,\n        42,\n        44,\n        51,\n        52\n    ]\n}"
				}
			]
		},
		{
			"name": "Verificar acertos do ultimo jogo",
			"request": {
				"auth": {
					"type": "bearer",
					"bearer": [
						{
							"key": "token",
							"value": "eyJ0eXAiOiJKV1QiLCJhbGciOiJIUzI1NiJ9.eyJ1c2VybmFtZSI6ImZlbGlwZSIsImV4cCI6MTYyODkzNDg2OH0.ftt5x_b9ETmnkJfHmN1r0cxL9QoBGgrM5vovI_XItqI",
							"type": "string"
						}
					]
				},
				"method": "GET",
				"header": [],
				"url": {
					"raw": "http://127.0.0.1:5000/consultaracertos",
					"protocol": "http",
					"host": [
						"127",
						"0",
						"0",
						"1"
					],
					"port": "5000",
					"path": [
						"consultaracertos"
					]
				}
			},
			"response": [
				{
					"name": "Verificar acertos do ultimo jogo",
					"originalRequest": {
						"method": "GET",
						"header": [],
						"url": {
							"raw": "http://127.0.0.1:5000/consultaracertos",
							"protocol": "http",
							"host": [
								"127",
								"0",
								"0",
								"1"
							],
							"port": "5000",
							"path": [
								"consultaracertos"
							]
						}
					},
					"status": "OK",
					"code": 200,
					"_postman_previewlanguage": "json",
					"header": [
						{
							"key": "Content-Type",
							"value": "application/json"
						},
						{
							"key": "Content-Length",
							"value": "200"
						},
						{
							"key": "Server",
							"value": "Werkzeug/1.0.1 Python/3.9.6"
						},
						{
							"key": "Date",
							"value": "Sat, 14 Aug 2021 01:01:06 GMT"
						}
					],
					"cookie": [],
					"body": "{\n    \"Concurso\": 2399,\n    \"Dezenas corretas\": [\n        27,\n        44\n    ],\n    \"ID da aposta\": 3,\n    \"Numero de acertos\": 2,\n    \"Resultado do concurso\": [\n        27,\n        35,\n        42,\n        44,\n        51,\n        52\n    ],\n    \"Sua aposta\": [\n        3,\n        5,\n        10,\n        27,\n        44,\n        55\n    ],\n    \"message\": \"Dados coletados com sucesso.\"\n}"
				}
			]
		},
		{
			"name": "Listar os jogos passados",
			"request": {
				"auth": {
					"type": "bearer",
					"bearer": [
						{
							"key": "token",
							"value": "eyJ0eXAiOiJKV1QiLCJhbGciOiJIUzI1NiJ9.eyJ1c2VybmFtZSI6ImZlbGlwZSIsImV4cCI6MTYyODkzMDczN30.kPS_0aSupFVnFZN-dNpnMekPkvluDVrN46Vh31Hhjas",
							"type": "string"
						}
					]
				},
				"method": "GET",
				"header": [],
				"url": {
					"raw": "http://127.0.0.1:5000/jogospassados",
					"protocol": "http",
					"host": [
						"127",
						"0",
						"0",
						"1"
					],
					"port": "5000",
					"path": [
						"jogospassados"
					]
				}
			},
			"response": [
				{
					"name": "Listar os jogos passados",
					"originalRequest": {
						"method": "GET",
						"header": [],
						"url": {
							"raw": "http://127.0.0.1:5000/jogospassados",
							"protocol": "http",
							"host": [
								"127",
								"0",
								"0",
								"1"
							],
							"port": "5000",
							"path": [
								"jogospassados"
							]
						}
					},
					"status": "OK",
					"code": 200,
					"_postman_previewlanguage": "json",
					"header": [
						{
							"key": "Content-Type",
							"value": "application/json"
						},
						{
							"key": "Content-Length",
							"value": "649"
						},
						{
							"key": "Server",
							"value": "Werkzeug/1.0.1 Python/3.9.6"
						},
						{
							"key": "Date",
							"value": "Sat, 14 Aug 2021 01:03:22 GMT"
						}
					],
					"cookie": [],
					"body": "{\n    \"data\": [\n        {\n            \"concurso\": 2400,\n            \"dezenas\": [\n                8,\n                14,\n                22,\n                28,\n                31,\n                50\n            ],\n            \"id\": 1,\n            \"id_user\": \"1\",\n            \"ndezenas\": 6,\n            \"realizada_em\": \"2021-08-13T21:54:12\"\n        },\n        {\n            \"concurso\": 2400,\n            \"dezenas\": [\n                1,\n                2,\n                3,\n                4,\n                5,\n                6\n            ],\n            \"id\": 2,\n            \"id_user\": \"1\",\n            \"ndezenas\": 6,\n            \"realizada_em\": \"2021-08-13T21:54:12\"\n        },\n        {\n            \"concurso\": 2399,\n            \"dezenas\": [\n                3,\n                5,\n                10,\n                27,\n                44,\n                55\n            ],\n            \"id\": 3,\n            \"id_user\": \"1\",\n            \"ndezenas\": 6,\n            \"realizada_em\": \"2021-08-13T21:54:12\"\n        },\n        {\n            \"concurso\": 2400,\n            \"dezenas\": [\n                22,\n                26,\n                28,\n                30,\n                55,\n                56\n            ],\n            \"id\": 4,\n            \"id_user\": \"1\",\n            \"ndezenas\": 6,\n            \"realizada_em\": \"2021-08-13T21:54:12\"\n        },\n        {\n            \"concurso\": 2400,\n            \"dezenas\": [\n                5,\n                6,\n                11,\n                35,\n                36,\n                39,\n                43,\n                46,\n                48,\n                55\n            ],\n            \"id\": 5,\n            \"id_user\": \"1\",\n            \"ndezenas\": 10,\n            \"realizada_em\": \"2021-08-13T21:54:12\"\n        }\n    ],\n    \"message\": \"Dados coletados com sucesso.\"\n}"
				}
			]
		}
	],
	"protocolProfileBehavior": {}
}